{
    "fontawesome": {
        "normal": "fontawesome_normal_90320d6848002102ab261126e2aea574"
    },
    "font awesome 6 brands": {
        "normal": "font_awesome_6_brands_normal_14a348a7b8f303c720f5b71ebe104673"
    },
    "font awesome 6 free": {
        "normal": "D:\\Programming Software\\PHP\\Projects\\SL-Projects\\qa\\storage\\fonts\/font_awesome_6_free_normal_05a8e4157ec18d2fbe177f2c01ee2e6e",
        "900": "font_awesome_6_free_900_5dcbce935361265a4c85924af7b00695"
    },
    "font awesome 5 brands": {
        "normal": "font_awesome_5_brands_normal_14a348a7b8f303c720f5b71ebe104673"
    },
    "font awesome 5 free": {
        "900": "D:\\Programming Software\\PHP\\Projects\\SL-Projects\\qa\\storage\\fonts\/font_awesome_5_free_900_5dcbce935361265a4c85924af7b00695",
        "normal": "font_awesome_5_free_normal_05a8e4157ec18d2fbe177f2c01ee2e6e"
    }
}